{
 "taskName": [
  "sendRequestToGoogleCalendar"
 ],
 "name": "GOOGLE_CALENDAR_CHECK_TAXES",
 "func": "let requestID = moment().unix();\nlet request = {\t\n\t\"id\": requestID,\n\t\"ELID\": 49385710979083,\n\t\"updatedAt\": 1591269769,\n\t\"createdAt\": 1591197551,\n\t\"client\": {\n\t\"id\": 210,\n\t\t\"ELID\": 49385464787164,\n\t\t\"updatedAt\": 1591197551,\n\t\t\"createdAt\": 1591197551,\n\t\t\"firstName\": \"User\",\n\t\t\"lastName\": \"Draftovi41591197551139\",\n\t\t\"email\": \"draft@1591197551139.dr\",\n\t\t\"password\": null,\n\t\t\"phone\": null,\n\t\t\"phoneAdditional\": null,\n\t\t\"companyName\": null,\n\t\t\"companyNameCustom\": null,\n\t\t\"roles\": [\n\t\t2\n\t],\n\t\t\"hashLogin\": \"d327471f3dc99abc3bb978b59758040e919e021be74331d88ad7fb5bfb843726\",\n\t\t\"status\": 1,\n\t\t\"avatar\": null,\n\t\t\"googleEmail\": null,\n\t\t\"googleCalendarStatuses\": []\n},\n\"manager\": {\n\t\"id\": 1,\n\t\t\"ELID\": 1708263449339160,\n\t\t\"updatedAt\": 0,\n\t\t\"createdAt\": 0,\n\t\t\"firstName\": \"Super\",\n\t\t\"lastName\": \"Manager\",\n\t\t\"email\": \"admin@admin.com\",\n\t\t\"password\": \"$2a$10$XrhGXvcoCm426XOvz5XmvedfRG3mvzkPp94D.0lFS2pW7uSz8FP4G\",\n\t\t\"phone\": \"1 (234) 567-8999\",\n\t\t\"phoneAdditional\": null,\n\t\t\"companyName\": \"Lexel\",\n\t\t\"companyNameCustom\": null,\n\t\t\"roles\": [\n\t\t1\n\t],\n\t\t\"hashLogin\": null,\n\t\t\"status\": 1,\n\t\t\"avatar\": null,\n\t\t\"googleEmail\": null,\n\t\t\"googleCalendarStatuses\": []\n},\n\"deliveryDate\": 1591329600,\n\t\"pickupDate\": 1591675200,\n\t\"deliveryTimeWindowStart\": 1591358400,\n\t\"deliveryTimeWindowEnd\": 1591372800,\n\t\"pickupTimeWindowStart\": 1591729200,\n\t\"pickupTimeWindowEnd\": 1591740000,\n\t\"deliveryWorkTime\": 60,\n\t\"pickupWorkTime\": 60,\n\t\"deliveryCrewSize\": 2,\n\t\"pickupCrewSize\": 2,\n\t\"status\": 3,\n\t\"source\": \"dashboard\",\n\t\"referrer\": 0,\n\t\"type\": 0,\n\t\"deliveryAddress\": {\n\t\"streetNumber\": \"\",\n\t\t\"address\": \"\",\n\t\t\"apt\": \"\",\n\t\t\"city\": \"\",\n\t\t\"state\": \"\",\n\t\t\"postal\": \"\"\n},\n\"pickupAddress\": {\n\t\"streetNumber\": \"\",\n\t\t\"address\": \"\",\n\t\t\"apt\": \"\",\n\t\t\"city\": \"\",\n\t\t\"state\": \"\",\n\t\t\"postal\": \"\"\n},\n\"packages\": {\n\t\"total\": 100,\n\t\t\"mainPackage\": {\n\t\t\"name\": \"888888\",\n\t\t\t\"description\": \"\",\n\t\t\t\"rate\": 100,\n\t\t\t\"size\": 0,\n\t\t\t\"extraUsageRate\": 0,\n\t\t\t\"usagePeriod\": 1,\n\t\t\t\"rollingCarts\": 0,\n\t\t\t\"quantity\": 1,\n\t\t\t\"total\": 100,\n\t\t\t\"usagePeriods\": 0,\n\t\t\t\"basicUsage\": 100,\n\t\t\t\"extraUsage\": 0,\n\t\t\t\"image\": \"\",\n\t\t\t\"isCustom\": true\n\t},\n\t\"additionalPackages\": []\n},\n\"services\": {\n\t\"total\": 0,\n\t\t\"autoServices\": [],\n\t\t\"customServices\": []\n},\n\"payments\": {\n\t\"total\": 0,\n\t\t\"rows\": []\n},\n\"discount\": {\n\t\"percent\": 0,\n\t\t\"promoCode\": null,\n\t\t\"total\": 0,\n\t\t\"type\": 0,\n\t\t\"value\": 0\n},\n\"total\": 100,\n\t\"totalWithDiscount\": 100,\n\t\"balance\": 100,\n\t\"notes\": {\n\t\"salesNotes\": \"\",\n\t\t\"clientNotes\": \"\"\n},\n\"savedVariables\": {\n\t\"packagesInfo\": {\n\t\t\"packages\": [\n\t\t\t{\n\t\t\t\t\"name\": \"Studio\",\n\t\t\t\t\"description\": \"\",\n\t\t\t\t\"rate\": 99,\n\t\t\t\t\"size\": 15,\n\t\t\t\t\"extraUsageRate\": 15,\n\t\t\t\t\"usagePeriod\": 2,\n\t\t\t\t\"rollingCarts\": 1,\n\t\t\t\t\"quantity\": 0,\n\t\t\t\t\"total\": 0,\n\t\t\t\t\"usagePeriods\": 0,\n\t\t\t\t\"basicUsage\": 0,\n\t\t\t\t\"extraUsage\": 0,\n\t\t\t\t\"image\": \"/../dashboard/fonts/createPicture.png\"\n\t\t\t},\n\t\t\t{\n\t\t\t\t\"name\": \"1-2 Bedroom\",\n\t\t\t\t\"description\": \"\",\n\t\t\t\t\"rate\": 129,\n\t\t\t\t\"size\": 30,\n\t\t\t\t\"extraUsageRate\": 30,\n\t\t\t\t\"usagePeriod\": 2,\n\t\t\t\t\"rollingCarts\": 2,\n\t\t\t\t\"quantity\": 0,\n\t\t\t\t\"total\": 0,\n\t\t\t\t\"usagePeriods\": 0,\n\t\t\t\t\"basicUsage\": 0,\n\t\t\t\t\"extraUsage\": 0,\n\t\t\t\t\"image\": \"/../dashboard/fonts/createPicture.png\"\n\t\t\t},\n\t\t\t{\n\t\t\t\t\"name\": \"3 BEDROOM\",\n\t\t\t\t\"description\": \"\",\n\t\t\t\t\"rate\": 179,\n\t\t\t\t\"size\": 50,\n\t\t\t\t\"extraUsageRate\": 50,\n\t\t\t\t\"usagePeriod\": 2,\n\t\t\t\t\"rollingCarts\": 3,\n\t\t\t\t\"quantity\": 0,\n\t\t\t\t\"total\": 0,\n\t\t\t\t\"usagePeriods\": 0,\n\t\t\t\t\"basicUsage\": 0,\n\t\t\t\t\"extraUsage\": 0,\n\t\t\t\t\"image\": \"/../dashboard/images/8746d95e9b79d2ea7a32f4e1706902dd.png\"\n\t\t\t},\n\t\t\t{\n\t\t\t\t\"name\": \"4+ BEDROOM\",\n\t\t\t\t\"description\": \"\",\n\t\t\t\t\"rate\": 249,\n\t\t\t\t\"size\": 70,\n\t\t\t\t\"extraUsageRate\": 70,\n\t\t\t\t\"usagePeriod\": 2,\n\t\t\t\t\"rollingCarts\": 7,\n\t\t\t\t\"quantity\": 0,\n\t\t\t\t\"total\": 0,\n\t\t\t\t\"usagePeriods\": 0,\n\t\t\t\t\"basicUsage\": 0,\n\t\t\t\t\"extraUsage\": 0,\n\t\t\t\t\"image\": \"/../dashboard/images/8746d95e9b79d2ea7a32f4e1706902dd.png\"\n\t\t\t}\n\t\t],\n\t\t\t\"supplies\": [\n\t\t\t{\n\t\t\t\t\"name\": \"Extra Bin\",\n\t\t\t\t\"description\": \"\",\n\t\t\t\t\"rate\": 1,\n\t\t\t\t\"size\": 0,\n\t\t\t\t\"extraUsageRate\": 1,\n\t\t\t\t\"usagePeriod\": 1,\n\t\t\t\t\"rollingCarts\": 0,\n\t\t\t\t\"quantity\": 0,\n\t\t\t\t\"total\": 0,\n\t\t\t\t\"usagePeriods\": 0,\n\t\t\t\t\"basicUsage\": 0,\n\t\t\t\t\"extraUsage\": 0,\n\t\t\t\t\"image\": \"/files/public/Lexel/uploadFile/1.png\"\n\t\t\t},\n\t\t\t{\n\t\t\t\t\"name\": \"Extra Dollies\",\n\t\t\t\t\"description\": \"Per 2 weeks\",\n\t\t\t\t\"rate\": 10,\n\t\t\t\t\"size\": 0,\n\t\t\t\t\"extraUsageRate\": 0,\n\t\t\t\t\"usagePeriod\": 1,\n\t\t\t\t\"rollingCarts\": 0,\n\t\t\t\t\"quantity\": 0,\n\t\t\t\t\"total\": 0,\n\t\t\t\t\"usagePeriods\": 0,\n\t\t\t\t\"basicUsage\": 0,\n\t\t\t\t\"extraUsage\": 0,\n\t\t\t\t\"image\": \"/files/public/Lexel/uploadFile/2.jpg\"\n\t\t\t},\n\t\t\t{\n\t\t\t\t\"name\": \"Small Box\",\n\t\t\t\t\"description\": \"Size : 21″ x 18″ x 46″\",\n\t\t\t\t\"rate\": 1.99,\n\t\t\t\t\"size\": 0,\n\t\t\t\t\"extraUsageRate\": 0,\n\t\t\t\t\"usagePeriod\": 0,\n\t\t\t\t\"rollingCarts\": 0,\n\t\t\t\t\"quantity\": 0,\n\t\t\t\t\"total\": 0,\n\t\t\t\t\"usagePeriods\": 0,\n\t\t\t\t\"basicUsage\": 0,\n\t\t\t\t\"extraUsage\": 0,\n\t\t\t\t\"image\": \"/files/public/Lexel/uploadFile/3.jpg\"\n\t\t\t},\n\t\t\t{\n\t\t\t\t\"name\": \"Medium Box\",\n\t\t\t\t\"description\": \"Size : 18″ x 18″ x 16″\",\n\t\t\t\t\"rate\": 2.49,\n\t\t\t\t\"size\": 0,\n\t\t\t\t\"extraUsageRate\": 0,\n\t\t\t\t\"usagePeriod\": 0,\n\t\t\t\t\"rollingCarts\": 0,\n\t\t\t\t\"quantity\": 0,\n\t\t\t\t\"total\": 0,\n\t\t\t\t\"usagePeriods\": 0,\n\t\t\t\t\"basicUsage\": 0,\n\t\t\t\t\"extraUsage\": 0,\n\t\t\t\t\"image\": \"/files/public/Lexel/uploadFile/4.jpg\"\n\t\t\t},\n\t\t\t{\n\t\t\t\t\"name\": \"Large Box\",\n\t\t\t\t\"description\": \"Size : 18″ x 18″ x 24″\",\n\t\t\t\t\"rate\": 2.99,\n\t\t\t\t\"size\": 0,\n\t\t\t\t\"extraUsageRate\": 0,\n\t\t\t\t\"usagePeriod\": 0,\n\t\t\t\t\"rollingCarts\": 0,\n\t\t\t\t\"quantity\": 0,\n\t\t\t\t\"total\": 0,\n\t\t\t\t\"usagePeriods\": 0,\n\t\t\t\t\"basicUsage\": 0,\n\t\t\t\t\"extraUsage\": 0,\n\t\t\t\t\"image\": \"/files/public/Lexel/uploadFile/5.jpg\"\n\t\t\t},\n\t\t\t{\n\t\t\t\t\"name\": \"Cardboard Wardrobe Box\",\n\t\t\t\t\"description\": \"Size : 21″ x 18″ x 46″\",\n\t\t\t\t\"rate\": 10,\n\t\t\t\t\"size\": 0,\n\t\t\t\t\"extraUsageRate\": 0,\n\t\t\t\t\"usagePeriod\": 0,\n\t\t\t\t\"rollingCarts\": 0,\n\t\t\t\t\"quantity\": 0,\n\t\t\t\t\"total\": 0,\n\t\t\t\t\"usagePeriods\": 0,\n\t\t\t\t\"basicUsage\": 0,\n\t\t\t\t\"extraUsage\": 0,\n\t\t\t\t\"image\": \"/files/public/Lexel/uploadFile/6.jpg\"\n\t\t\t},\n\t\t\t{\n\t\t\t\t\"name\": \"Picture Box\",\n\t\t\t\t\"description\": \"Size : 37″ x 4″ x 27″\",\n\t\t\t\t\"rate\": 4,\n\t\t\t\t\"size\": 0,\n\t\t\t\t\"extraUsageRate\": 0,\n\t\t\t\t\"usagePeriod\": 0,\n\t\t\t\t\"rollingCarts\": 0,\n\t\t\t\t\"quantity\": 0,\n\t\t\t\t\"total\": 0,\n\t\t\t\t\"usagePeriods\": 0,\n\t\t\t\t\"basicUsage\": 0,\n\t\t\t\t\"extraUsage\": 0,\n\t\t\t\t\"image\": \"/files/public/Lexel/uploadFile/7.jpg\"\n\t\t\t},\n\t\t\t{\n\t\t\t\t\"name\": \"Packing Paper (bundle)\",\n\t\t\t\t\"description\": \"16 lbs 1/2 bundle 220 sheets\",\n\t\t\t\t\"rate\": 30,\n\t\t\t\t\"size\": 0,\n\t\t\t\t\"extraUsageRate\": 0,\n\t\t\t\t\"usagePeriod\": 0,\n\t\t\t\t\"rollingCarts\": 0,\n\t\t\t\t\"quantity\": 0,\n\t\t\t\t\"total\": 0,\n\t\t\t\t\"usagePeriods\": 0,\n\t\t\t\t\"basicUsage\": 0,\n\t\t\t\t\"extraUsage\": 0,\n\t\t\t\t\"image\": \"/files/public/Lexel/uploadFile/8.jpg\"\n\t\t\t},\n\t\t\t{\n\t\t\t\t\"name\": \"Packing Paper ( 1/2 bundle)\",\n\t\t\t\t\"description\": \"16 lbs 1/2 bundle 220 sheets\",\n\t\t\t\t\"rate\": 15,\n\t\t\t\t\"size\": 0,\n\t\t\t\t\"extraUsageRate\": 0,\n\t\t\t\t\"usagePeriod\": 0,\n\t\t\t\t\"rollingCarts\": 0,\n\t\t\t\t\"quantity\": 0,\n\t\t\t\t\"total\": 0,\n\t\t\t\t\"usagePeriods\": 0,\n\t\t\t\t\"basicUsage\": 0,\n\t\t\t\t\"extraUsage\": 0,\n\t\t\t\t\"image\": \"/files/public/Lexel/uploadFile/8-0.jpg\"\n\t\t\t},\n\t\t\t{\n\t\t\t\t\"name\": \"Mattress Cover, Queen Size\",\n\t\t\t\t\"description\": \"96″ x 73″ x 14″\",\n\t\t\t\t\"rate\": 10,\n\t\t\t\t\"size\": 0,\n\t\t\t\t\"extraUsageRate\": 0,\n\t\t\t\t\"usagePeriod\": 0,\n\t\t\t\t\"rollingCarts\": 0,\n\t\t\t\t\"quantity\": 0,\n\t\t\t\t\"total\": 0,\n\t\t\t\t\"usagePeriods\": 0,\n\t\t\t\t\"basicUsage\": 0,\n\t\t\t\t\"extraUsage\": 0,\n\t\t\t\t\"image\": \"/files/public/Lexel/uploadFile/9.jpg\"\n\t\t\t},\n\t\t\t{\n\t\t\t\t\"name\": \"Mattress Cover, King Size\",\n\t\t\t\t\"description\": \"100″ x 91″ x 14″\",\n\t\t\t\t\"rate\": 10,\n\t\t\t\t\"size\": 0,\n\t\t\t\t\"extraUsageRate\": 0,\n\t\t\t\t\"usagePeriod\": 0,\n\t\t\t\t\"rollingCarts\": 0,\n\t\t\t\t\"quantity\": 0,\n\t\t\t\t\"total\": 0,\n\t\t\t\t\"usagePeriods\": 0,\n\t\t\t\t\"basicUsage\": 0,\n\t\t\t\t\"extraUsage\": 0,\n\t\t\t\t\"image\": \"/files/public/Lexel/uploadFile/10.jpg\"\n\t\t\t}\n\t\t],\n\t\t\t\"mostPopularPackage\": \"3 BEDROOM\"\n\t},\n\t\"servicesInfo\": {\n\t\t\"customServices\": [\n\t\t\t{\n\t\t\t\t\"name\": \"Test2\",\n\t\t\t\t\"rate\": 1,\n\t\t\t\t\"readOnly\": false\n\t\t\t}\n\t\t],\n\t\t\t\"systemServices\": {\n\t\t\t\"floorService\": [\n\t\t\t\t\"1\",\n\t\t\t\t\"2\",\n\t\t\t\t\"3\",\n\t\t\t\t\"4\",\n\t\t\t\t\"10000\"\n\t\t\t],\n\t\t\t\t\"distanceCharge\": []\n\t\t}\n\t},\n\t\"discountSettings\": {\n\t\t\"promoCodes\": [\n\t\t\t{\n\t\t\t\t\"name\": \"Winter\",\n\t\t\t\t\"percent\": \"20\",\n\t\t\t\t\"value\": 0,\n\t\t\t\t\"type\": 1\n\t\t\t},\n\t\t\t{\n\t\t\t\t\"name\": \"Summer\",\n\t\t\t\t\"percent\": \"20\",\n\t\t\t\t\"value\": 0,\n\t\t\t\t\"type\": 1\n\t\t\t},\n\t\t\t{\n\t\t\t\t\"name\": \"Yelp -129\",\n\t\t\t\t\"percent\": 0,\n\t\t\t\t\"value\": 129,\n\t\t\t\t\"type\": 1\n\t\t\t},\n\t\t\t{\n\t\t\t\t\"name\": \"A99\",\n\t\t\t\t\"percent\": \"99\",\n\t\t\t\t\"value\": 0,\n\t\t\t\t\"type\": 1\n\t\t\t}\n\t\t]\n\t}\n},\n\"parklot\": [\n\t{\n\t\t\"id\": 1496,\n\t\t\"status\": 1,\n\t\t\"type\": 1,\n\t\t\"startTime\": 1591729200,\n\t\t\"endTime\": 1591732800,\n\t\t\"entityType\": \"Request\",\n\t\t\"entityId\": 289,\n\t\t\"trucks\": [\n\t\t\tnull\n\t\t]\n\t},\n\t{\n\t\t\"id\": 1495,\n\t\t\"status\": 1,\n\t\t\"type\": 0,\n\t\t\"startTime\": 1591358400,\n\t\t\"endTime\": 1591362000,\n\t\t\"entityType\": \"Request\",\n\t\t\"entityId\": 289,\n\t\t\"trucks\": [\n\t\t\tnull\n\t\t]\n\t}\n],\n\"location\": {},\n\"taxes\": {total:123}\n};\n\nreturn this.services.googleCalendar('sendRequestToGoogleCalendar', {newRequest:request})\n\t.then(res => {\n\t\t\tlet taxWordSearch = res[0].data.description.indexOf('<strong>Tax:</strong> 123$');\n\t     \tres[0].data.searchResult = taxWordSearch;\n\n\t     \tthis.validate(res, {\n\t\t\t'0':'required|isNotEmptyObject',\n\t\t\t'0.status': [{'isEqual': 200}],\n\t\t\t'0.statusText': [{'isEqual': 'OK'}],\n\t\t\t'0.data.status': [{'isEqual': 'confirmed'}],\n\t\t\t'0.data.searchResult' : [{'isMoreThen': 0}],\n\t\t});\n\t})\n\t\n   ",
 "authorizedUser": {
  "id": 1,
  "roles": [
   1
  ]
 },
 "serviceName": [
  "googleCalendar"
 ],
 "tasksGroupName": "Lexel_crate"
}