{
 "taskName": [
  "getRequest"
 ],
 "name": "Getting not existing request",
 "func": "return this.services.request('getRequest', {id: 9999999})\n\t.then(res => {\n\t\tif (!_.isEmpty(res)) throw new Error('Request must not exist!');\n\t});",
 "authorizedUser": {
  "id": 3,
  "roles": [
   2,
   1,
   4
  ]
 },
 "serviceName": [
  "request"
 ]
}