{
 "taskName": [
  "createRequest",
  "getRequest"
 ],
 "name": "Create Request",
 "func": "return this.services.request('createRequest', { client:{id:1} })\n.then(res => {\n   this.validate(res, {'client.id':['required', { 'in': [1]}]}) \n   return this.services.request('getRequest', {id:res.id})\n})\n.then(res => {\n     this.validate(res, {'client.id':['required', { 'in': [1]}]}) \n     return res;    \n})",
 "authorizedUser": {},
 "serviceName": [
  "request"
 ]
}